<?xml version="1.0" encoding="UTF-8" standalone="no"?>
<!-- Created with Inkscape (http://www.inkscape.org/) -->

<svg
   xmlns:osb="http://www.openswatchbook.org/uri/2009/osb"
   xmlns:dc="http://purl.org/dc/elements/1.1/"
   xmlns:cc="http://creativecommons.org/ns#"
   xmlns:rdf="http://www.w3.org/1999/02/22-rdf-syntax-ns#"
   xmlns:svg="http://www.w3.org/2000/svg"
   xmlns="http://www.w3.org/2000/svg"
   xmlns:xlink="http://www.w3.org/1999/xlink"
   xmlns:sodipodi="http://sodipodi.sourceforge.net/DTD/sodipodi-0.dtd"
   xmlns:inkscape="http://www.inkscape.org/namespaces/inkscape"
   width="210mm"
   height="297mm"
   viewBox="0 0 210 297"
   version="1.1"
   id="svg8"
   sodipodi:docname="TraderScepter.svg"
   inkscape:version="0.92.4 (33fec40, 2019-01-16)">
  <defs
     id="defs2">
    <linearGradient
       id="linearGradient3622"
       osb:paint="solid">
      <stop
         style="stop-color:#ffd700;stop-opacity:1;"
         offset="0"
         id="stop3620" />
    </linearGradient>
    <linearGradient
       inkscape:collect="always"
       id="linearGradient1099">
      <stop
         style="stop-color:#0000ff;stop-opacity:1;"
         offset="0"
         id="stop1095" />
      <stop
         style="stop-color:#0000ff;stop-opacity:0;"
         offset="1"
         id="stop1097" />
    </linearGradient>
    <linearGradient
       inkscape:collect="always"
       xlink:href="#linearGradient1099"
       id="linearGradient1101"
       x1="105.83334"
       y1="297"
       x2="105.83334"
       y2="0.66666669"
       gradientUnits="userSpaceOnUse" />
  </defs>
  <sodipodi:namedview
     id="base"
     pagecolor="#ffffff"
     bordercolor="#666666"
     borderopacity="1.0"
     inkscape:pageopacity="0.0"
     inkscape:pageshadow="2"
     inkscape:zoom="0.35"
     inkscape:cx="22.452697"
     inkscape:cy="337.01672"
     inkscape:document-units="mm"
     inkscape:current-layer="layer1"
     showgrid="true"
     showguides="true"
     inkscape:window-width="1210"
     inkscape:window-height="736"
     inkscape:window-x="70"
     inkscape:window-y="27"
     inkscape:window-maximized="1">
    <inkscape:grid
       type="xygrid"
       id="grid44" />
  </sodipodi:namedview>
  <metadata
     id="metadata5">
    <rdf:RDF>
      <cc:Work
         rdf:about="">
        <dc:format>image/svg+xml</dc:format>
        <dc:type
           rdf:resource="http://purl.org/dc/dcmitype/StillImage" />
        <dc:title></dc:title>
      </cc:Work>
    </rdf:RDF>
  </metadata>
  <g
     inkscape:label="Layer 1"
     inkscape:groupmode="layer"
     id="layer1">
    <path
       style="fill:url(#linearGradient1101);fill-opacity:1;stroke-width:3.39366102"
       d="M 77.760909,291.70833 C 52.910906,282.06239 17.964297,241.07145 3.5960961,204.71604 -1.0906316,192.85737 -0.81400245,190.02434 7.1639241,168.1778 11.920598,155.15226 25.289994,129.26218 36.873689,110.64424 48.457398,92.026305 66.388727,61.701019 76.721092,43.254637 107.56286,-11.807187 103.54805,-10.090408 124.30087,22.908879 c 30.05105,47.784517 64.17278,110.184341 76.78246,140.414931 15.14942,25.309 9.22973,33.93118 -3.95848,58.13305 -17.43873,32.00205 -44.55001,61.40927 -64.34638,69.79558 -14.88572,6.306 -39.422632,6.50934 -55.017561,0.45589 z"
       id="path48"
       inkscape:connector-curvature="0"
       sodipodi:nodetypes="ssssssccss" />
    <ellipse
       style="fill:#333333;stroke-width:1.25712192"
       id="path62"
       cx="65.985542"
       cy="180.34576"
       rx="25.142374"
       ry="25.1425" />
    <ellipse
       cy="180.21786"
       cx="131.35577"
       id="circle64"
       style="fill:#333333;stroke-width:1.25712192"
       rx="25.142374"
       ry="25.1425" />
    <g
       id="g4675"
       transform="translate(375.1793,74.083336)">
      <rect
         y="95.916664"
         x="-201.08333"
         height="95.25"
         width="10.583328"
         id="rect1618"
         style="opacity:1;fill:#ffd700;fill-opacity:1;stroke:#ffd700;stroke-width:0.74599999;stroke-linecap:round;stroke-linejoin:round;stroke-miterlimit:4;stroke-dasharray:none;stroke-dashoffset:0;stroke-opacity:1;paint-order:normal" />
      <path
         d="m -185.38544,202.09283 a 10.583333,10.583333 0 0 1 -11.96775,8.53743 10.583333,10.583333 0 0 1 -8.95413,-11.65926 10.583333,10.583333 0 0 1 11.33626,-9.35969 10.583333,10.583333 0 0 1 9.75362,10.99917"
         sodipodi:open="true"
         sodipodi:end="0.042311668"
         sodipodi:start="0.18339047"
         sodipodi:ry="10.583333"
         sodipodi:rx="10.583333"
         sodipodi:cy="200.16281"
         sodipodi:cx="-195.79131"
         sodipodi:type="arc"
         id="path2163"
         style="opacity:1;fill:#ffd700;fill-opacity:1;stroke:#ffd700;stroke-width:0.74599999;stroke-linecap:round;stroke-linejoin:round;stroke-miterlimit:4;stroke-dasharray:none;stroke-dashoffset:0;stroke-opacity:1;paint-order:normal" />
      <rect
         ry="15.875"
         y="64.166664"
         x="-211.66666"
         height="31.75"
         width="31.75"
         id="rect2165"
         style="opacity:1;fill:#ff0000;fill-opacity:1;stroke:#ff0000;stroke-width:0.74599999;stroke-linecap:round;stroke-linejoin:round;stroke-miterlimit:4;stroke-dasharray:none;stroke-dashoffset:0;stroke-opacity:1;paint-order:normal" />
      <path
         d="m -190.38583,64.869855 a 15.875,15.875 0 0 1 10.47105,14.926921 h -15.875 z"
         sodipodi:end="0"
         sodipodi:start="5.0597378"
         sodipodi:ry="15.875"
         sodipodi:rx="15.875"
         sodipodi:cy="79.796776"
         sodipodi:cx="-195.78978"
         sodipodi:type="arc"
         id="path942"
         style="fill:#ffd700;fill-opacity:1;stroke:#ffd700;stroke-width:0.69999999;stroke-linecap:round;stroke-linejoin:round;stroke-miterlimit:4;stroke-dasharray:none;stroke-dashoffset:0;stroke-opacity:1;paint-order:normal" />
      <path
         d="m -180.42335,75.531007 a 15.875,15.875 0 0 1 -8.64065,18.36077 15.875,15.875 0 0 1 -19.6321,-5.134131 15.875,15.875 0 0 1 1.45415,-20.240164 l 11.451,10.995015 z"
         sodipodi:end="3.9066791"
         sodipodi:start="6.0296761"
         sodipodi:ry="15.875"
         sodipodi:rx="15.875"
         sodipodi:cy="79.512497"
         sodipodi:cx="-195.79095"
         sodipodi:type="arc"
         id="path934"
         style="fill:#ffd700;fill-opacity:1;stroke:#ffd700;stroke-width:0.69999999;stroke-linecap:round;stroke-linejoin:round;stroke-miterlimit:4;stroke-dasharray:none;stroke-dashoffset:0;stroke-opacity:1;paint-order:normal" />
      <rect
         style="opacity:1;fill:#ff0000;fill-opacity:1;stroke:#ff0000;stroke-width:0.74599999;stroke-linecap:round;stroke-linejoin:round;stroke-miterlimit:4;stroke-dasharray:none;stroke-dashoffset:0;stroke-opacity:1;paint-order:normal"
         id="rect2170"
         width="31.75001"
         height="21.166672"
         x="-211.66667"
         y="74.75"
         ry="0" />
      <path
         transform="scale(-1,1)"
         style="fill:#ff0000;fill-opacity:1;stroke:#ff0600;stroke-width:0.69999999;stroke-linecap:round;stroke-linejoin:round;stroke-miterlimit:4;stroke-dasharray:none;stroke-dashoffset:0;stroke-opacity:1;paint-order:normal"
         id="path944"
         sodipodi:type="arc"
         sodipodi:cx="195.78841"
         sodipodi:cy="79.512497"
         sodipodi:rx="15.875"
         sodipodi:ry="15.875"
         sodipodi:start="6.0296761"
         sodipodi:end="3.9066791"
         d="m 211.15601,75.531007 a 15.875,15.875 0 0 1 -8.64065,18.36077 15.875,15.875 0 0 1 -19.6321,-5.134131 15.875,15.875 0 0 1 1.45415,-20.240164 l 11.451,10.995015 z" />
      <rect
         y="74.75"
         x="-211.66666"
         height="21.166666"
         width="5.2916665"
         id="rect926"
         style="fill:#ffd700;fill-opacity:1;stroke:#ffd700;stroke-width:0.69999999;stroke-linecap:round;stroke-linejoin:round;stroke-miterlimit:4;stroke-dasharray:none;stroke-dashoffset:0;stroke-opacity:1;paint-order:normal" />
      <rect
         style="fill:#ffd700;fill-opacity:1;stroke:#ffd700;stroke-width:0.85732138;stroke-linecap:round;stroke-linejoin:round;stroke-miterlimit:4;stroke-dasharray:none;stroke-dashoffset:0;stroke-opacity:1;paint-order:normal"
         id="rect928"
         width="5.2916665"
         height="31.75"
         x="-200.55431"
         y="64.166664" />
      <rect
         y="74.75"
         x="-189.97112"
         height="21.166666"
         width="5.2916665"
         id="rect930"
         style="fill:#ffd700;fill-opacity:1;stroke:#ffd700;stroke-width:0.69999999;stroke-linecap:round;stroke-linejoin:round;stroke-miterlimit:4;stroke-dasharray:none;stroke-dashoffset:0;stroke-opacity:1;paint-order:normal" />
      <rect
         y="69.458336"
         x="-206.375"
         height="5.2916665"
         width="5.2916665"
         id="rect936"
         style="fill:#ff0000;fill-opacity:1;stroke:#ffd700;stroke-width:0.69999999;stroke-linecap:round;stroke-linejoin:round;stroke-miterlimit:4;stroke-dasharray:none;stroke-dashoffset:0;stroke-opacity:1;paint-order:normal" />
      <rect
         style="fill:#ffd700;fill-opacity:1;stroke:#ffd700;stroke-width:0.69999999;stroke-linecap:round;stroke-linejoin:round;stroke-miterlimit:4;stroke-dasharray:none;stroke-dashoffset:0;stroke-opacity:1;paint-order:normal"
         id="rect946"
         width="5.2916665"
         height="5.2916665"
         x="-189.97105"
         y="69.458336" />
      <rect
         y="64.166664"
         x="-195.26271"
         height="31.75"
         width="5.2916665"
         id="rect948"
         style="fill:#ff0400;fill-opacity:1;stroke:#ff1700;stroke-width:0.85732138;stroke-linecap:round;stroke-linejoin:round;stroke-miterlimit:4;stroke-dasharray:none;stroke-dashoffset:0;stroke-opacity:1;paint-order:normal" />
      <rect
         y="48.291676"
         x="-198.4375"
         height="15.875"
         width="5.2916665"
         id="rect950"
         style="fill:#ffd700;fill-opacity:1;stroke:#ffd700;stroke-width:0.34999999;stroke-linecap:round;stroke-linejoin:round;stroke-miterlimit:4;stroke-dasharray:none;stroke-dashoffset:0;stroke-opacity:1;paint-order:normal" />
      <rect
         y="43.000011"
         x="-203.72916"
         height="5.2916665"
         width="15.875"
         id="rect952"
         style="fill:#ffd700;fill-opacity:1;stroke:#ffd700;stroke-width:0.34999999;stroke-linecap:round;stroke-linejoin:round;stroke-miterlimit:4;stroke-dasharray:none;stroke-dashoffset:0;stroke-opacity:1;paint-order:normal" />
      <rect
         y="37.708344"
         x="-198.4375"
         height="5.2916665"
         width="5.2916665"
         id="rect954"
         style="fill:#ffd700;fill-opacity:1;stroke:#ffd700;stroke-width:0.34999999;stroke-linecap:round;stroke-linejoin:round;stroke-miterlimit:4;stroke-dasharray:none;stroke-dashoffset:0;stroke-opacity:1;paint-order:normal" />
    </g>
  </g>
</svg>
